module blog_app

go 1.16

require (
	github.com/gobuffalo/buffalo v0.18.4
	github.com/gobuffalo/buffalo-pop/v3 v3.0.3
	github.com/gobuffalo/envy v1.10.1
	github.com/gobuffalo/mw-csrf v1.0.0
	github.com/gobuffalo/mw-forcessl v0.0.0-20200131175327-94b2bd771862
	github.com/gobuffalo/mw-i18n/v2 v2.0.1
	github.com/gobuffalo/mw-paramlogger v1.0.0
	github.com/gobuffalo/pop/v6 v6.0.1
	github.com/gobuffalo/suite/v4 v4.0.2
	github.com/gobuffalo/validate/v3 v3.3.1
	github.com/gobuffalo/x v0.0.0-20190224155809-6bb134105960
	github.com/gofrs/uuid v4.2.0+incompatible
	github.com/jackc/pgx/v4 v4.15.0 // indirect
	github.com/kr/pretty v0.3.0 // indirect
	github.com/markbates/grift v1.5.0
	github.com/mattn/go-sqlite3 v1.14.12 // indirect
	github.com/microcosm-cc/bluemonday v1.0.18 // indirect
	github.com/rogpeppe/go-internal v1.8.1 // indirect
	github.com/unrolled/secure v1.10.0
	golang.org/x/crypto v0.0.0-20220315160706-3147a52a75dd // indirect
	golang.org/x/net v0.0.0-20220225172249-27dd8689420f // indirect
	golang.org/x/sys v0.0.0-20220319134239-a9b59b0215f8 // indirect
)
